Project 1: Wrangling, Exploration, Visualization
…
health_indicators <- inner_join(phys, obesity, by = c("Location", 
    "Sex", "Year")) %>% left_join(life, by = c("Location", "Sex"))

Because phys and obesity are the same length, I can perform an inner join without losing any data. My life dataset is averages over a span of 25 years, so I will have repeated numbers for each Location after perfoming a left join to the previously inner-joined dataset.

Wrangling

health_indicators <- health_indicators %>% na.omit

# highest life expectancy for males
health_indicators %>% arrange(desc(`Avg Life Expectancy`)) %>% 
    select(1:2, 6) %>% group_by(Location, Sex) %>% filter(Sex == 
    "Male") %>% distinct()

## # A tibble: 256 x 3
## # Groups:   Location, Sex [256]
##    Location   Sex   `Avg Life Expectancy`
##    <chr>      <chr>                 <dbl>
##  1 Collin     Male                   76.5
##  2 Williamson Male                   76.1
##  3 Hidalgo    Male                   75.9
##  4 Fort Bend  Male                   75.9
##  5 Hays       Male                   75.4
##  6 Denton     Male                   75.4
##  7 Bandera    Male                   75.3
##  8 Brazos     Male                   75.1
##  9 Travis     Male                   75.1
## 10 Cameron    Male                   74.9
## #  with 246 more rows

# highest life expectancy for females
health_indicators %>% arrange(desc(`Avg Life Expectancy`)) %>% 
    select(1:2, 6) %>% group_by(Location, Sex) %>% filter(Sex == 
    "Female") %>% distinct()

## # A tibble: 256 x 3
## # Groups:   Location, Sex [256]
##    Location   Sex    `Avg Life Expectancy`
##    <chr>      <chr>                  <dbl>
##  1 Hidalgo    Female                  81.7
##  2 Cameron    Female                  81.3
##  3 Collin     Female                  81.1
##  4 Williamson Female                  81.0
##  5 Webb       Female                  80.9
##  6 Fort Bend  Female                  80.8
##  7 Kerr       Female                  80.8
##  8 Gillespie  Female                  80.8
##  9 Mason      Female                  80.8
## 10 Menard     Female                  80.8
## #  with 246 more rows
…
# highest performers above the mean
health_indicators %>% group_by(Location) %>% filter(`Percent Active` > 
    mean(`Percent Active`)) %>% arrange(desc(`Percent Active`))

## # A tibble: 845 x 6
## # Groups:   Location [256]
##    Location   Sex   Year  `Percent Active` `Percent Obese` `Avg Life Expectancy`
##    <chr>      <chr> <chr>            <dbl>           <dbl>                 <dbl>
##  1 Loving     Male  2009              64.9            34.9                  71.2
##  2 Comal      Male  2009              64.7            34.1                  74.8
##  3 Travis     Male  2001              64.7            20.8                  75.1
##  4 Williamson Male  2001              64.6            23.9                  76.1
##  5 Travis     Male  2009              64.4            28.4                  75.1
##  6 Bell       Male  2001              64.2            25.8                  72.6
##  7 Hays       Male  2009              63.9            33.8                  75.4
##  8 Williamson Male  2009              63.5            32.6                  76.1
##  9 Comal      Male  2011              63.2            35.1                  74.8
## 10 Collin     Male  2001              63.1            25.5                  76.5
## #  with 835 more rows
…
